module gitlab.com/cesmanager/base-server

go 1.13

require (
	github.com/davecgh/go-spew v1.1.1 // indirect
	github.com/go-sql-driver/mysql v1.7.0
	github.com/gorilla/mux v1.8.0
	github.com/gorilla/securecookie v1.1.1
	github.com/gorilla/sessions v1.2.1
	github.com/gorilla/websocket v1.5.0
	github.com/kr/pretty v0.3.1 // indirect
	github.com/pkg/sftp v1.13.5
	github.com/satori/go.uuid v1.2.0
	gitlab.com/sammybigboy440/samgo-template v0.0.0-20220316000219-2f1412d71705
	golang.org/x/crypto v0.5.0
	golang.org/x/sys v0.5.0 // indirect
	gopkg.in/check.v1 v1.0.0-20201130134442-10cb98267c6c // indirect
	gopkg.in/yaml.v3 v3.0.1
	gorm.io/driver/mysql v1.4.6
	gorm.io/gorm v1.24.5
)
